 __  __                        ______      ____        __                          __     
/\ \/\ \     __               /\  _  \    /\  _`\     /\ \                        /\ `\   
\ \ \_\ \   /\_\              \ \ \L\ \   \ \,\L\_\   \ \ \                  __   \`\  \  
 \ \  _  \  \/\ \              \ \  __ \   \/_\__ \    \ \ \  __            /\_\   `\`\ \ 
  \ \ \ \ \  \ \ \              \ \ \/\ \    /\ \L\ \   \ \ \L\ \           \/_/_   `\/' \
   \ \_\ \_\  \ \_\              \ \_\ \_\   \ `\____\   \ \____/             /\_\   /\__/
    \/_/\/_/   \/_/               \/_/\/_/    \/_____/    \/___/              \/_/   \/_/ 
                                                                                          